{
  "wpadmin_admin_passCredentials": {
    "status": "true"
  },
  "wpadmin_admin_getToken": {
    "TokenStatus": "true",
    "TokenValidUntil": "1599999999"
  },
  "wpadmin_admin_accessTokenNoToken": {
    "status": "false",
    "message": "Token is not find",
    "Message": "test Message",
    "Status": 0,
    "IsSuccess": true
  },
  "wpadmin_admin_getPartnerStatus": {
    "partnerStatus": "true"
  },
  "wpadmin_admin_marketStatus": {
    "changeMarketPlaceList": [
      {
        "id": 1,
        "newState": false
      },
      {
        "id": 2,
        "newState": true
      }
    ]
  },
  "hub-plenty_connector": {
    "status": true,
    "code": 200,
    "data": [
        {
            "id": 3,
            "alias": "ManomanoDE",
            "fare": 5.95,
            "active": false,
            "unavailable": false,
            "value": null
        },
        {
            "id": 4,
            "alias": "ManomanoIT",
            "fare": 5.95,
            "active": false,
            "unavailable": false
        },
        {
            "id": 5,
            "alias": "ManomanoES",
            "fare": 5.95,
            "active": false,
            "unavailable": false
        },
        {
            "id": 6,
            "alias": "ManomanoUK",
            "fare": 5.95,
            "active": true,
            "unavailable": true
        },
        {
            "id": 7,
            "alias": "ManomanoFR",
            "fare": 5.95,
            "active": false,
            "unavailable": false
        }
    ]
  },
  "wpadmin_admin_playMarketsList": {
    "status": "true",
    "data": [
      {
        "id": 1,
        "alias": "Core",
        "fare": -1,
        "active": true,
        "unavailable": true,
        "cellClassName": {
          "active": ""
        }
      },
      {
        "id": 2,
        "alias": "Shops",
        "fare": -1,
        "active": false,
        "unavailable": false,
        "cellClassName": {
          "active": ""
        }
      },
      {
        "id": 3,
        "alias": "ManomanoDE",
        "fare": 5.95,
        "active": false,
        "unavailable": false,
        "cellClassName": {
          "active": ""
        }
      },
      {
        "id": 4,
        "alias": "ManomanoIT",
        "fare": 5.95,
        "active": true,
        "unavailable": true,
        "cellClassName": {
          "active": ""
        }
      },
      {
        "id": 5,
        "alias": "ManomanoES",
        "fare": 5.95,
        "active": false,
        "unavailable": false,
        "cellClassName": {
          "active": ""
        }
      },
      {
        "id": 6,
        "alias": "ManomanoUK",
        "fare": 5.95,
        "active": false,
        "unavailable": false,
        "cellClassName": {
          "active": ""
        }
      },
      {
        "id": 7,
        "alias": "ManomanoFR",
        "fare": 5.95,
        "active": false,
        "unavailable": false,
        "cellClassName": {
          "active": ""
        }
      }
    ]
  },
  "wpadmin_admin_productAttribute": {
    "status": true,
    "code": 200,
    "data": [
      {
        "id": "1",
        "name": "rot"
      },
      {
        "id": "3",
        "name": "auf Lager"
      },
      {
        "id": "4",
        "name": "schwarz"
      },
      {
        "id": "5",
        "name": "weiß"
      },
      {
        "id": "6",
        "name": "bis 100"
      },
      {
        "id": "7",
        "name": "bis 200"
      }
    ]
  },
  "wpadmin_admin_passCredentials_id_6": {
    "status": true,
    "code": 200,
    "data": [
      {
        "name": "Login",
        "value": "Edelux_873326"
      },
      {
        "name": "Pass",
        "value": "edlx873326qsf_d"
      },
      {
        "name": "PlentyId",
        "value": "28"
      },
      {
        "name": "LangId",
        "value": "34"
      },
      {
        "name": "Price",
        "value": "13"
      },
      {
        "name": "FieldName",
        "value": "{{Name1}}, {{Name2}}, {{Name3}}, {{Name4}}, {{Name5}}"
      },
      {
        "name": "FieldDescription",
        "value": "[[<p><b>{{Property416Name}}:</b>   {{Property416Value}}</p><br>]][[<p><b>{{Property417Name}}:</b>   {{Property417Value}}</p><br>]][[<p><b>{{Property419Name}}:</b>   {{Property419Value}}</p><br>]][[<p><b>{{Property420Name}}:</b>   {{Property420Value}}</p><br>]][[<p><b>{{Property421Name}}:</b>   {{Property421Value}}</p><br>]][[<p><b>{{Property422Name}}:</b>   {{Property422Value}}</p><br>]]<br>{{Description}}"
      },
      {
        "name": "FilterVendors",
        "value": [
          417,
          423,
          999
        ]
      },
      {
        "name": "FilterAvailability",
        "value": [
          3,
          6,
          8,
          9
        ]
      },
      {
        "name": "Currency",
        "value": "GBP"
      },
      {
        "name": "FeedType",
        "value": "csv"
      },
      {
        "name": "PropertyColor",
        "value": "{{Property470Value}}"
      },
      {
        "name": "LangHuman",
        "value": "en"
      },
      {
        "name": "MandantId",
        "value": "37185"
      },
      {
        "name": "FilterProducts",
        "value": "a:23:{i:0;i:432;i:1;i:433;i:2;i:434;i:3;i:435;i:4;i:437;i:5;i:440;i:6;i:1246;i:7;i:1247;i:8;i:415;i:9;i:416;i:10;i:418;i:11;i:425;i:12;i:426;i:13;i:427;i:14;i:4774;i:15;i:431;i:16;i:782;i:17;i:934;i:18;i:1249;i:19;i:493;i:20;i:496;i:21;i:497;i:22;i:498;}"
      },
      {
        "name": "FeedFileName",
        "value": "manomano.uk.csv"
      },
      {
        "name": "ShippingCosts",
        "value": "a:4:{s:2:\"EU\";a:5:{i:19;d:12.949999999999999;i:22;i:0;i:23;d:14.949999999999999;i:25;d:2.5;i:35;d:32.950000000000003;}s:2:\"DE\";a:6:{i:19;d:5.9500000000000002;i:22;i:0;i:23;d:7.9500000000000002;i:25;i:1;i:32;d:9.9499999999999993;i:35;d:19.949999999999999;}s:3:\"NEU\";a:5:{i:19;d:39.950000000000003;i:22;i:0;i:23;d:49.950000000000003;i:25;d:3.5;i:35;d:79.950000000000003;}s:3:\"ANY\";a:5:{i:19;d:59.950000000000003;i:22;i:0;i:23;d:99.950000000000003;i:25;d:3.5;i:35;d:199.94999999999999;}}"
      },
      {
        "name": "ShippingArea",
        "value": "EU"
      },
      {
        "name": "ShippingTime",
        "value": "a:10:{i:1;i:1;i:2;i:1;i:3;i:3;i:4;i:5;i:5;i:7;i:6;i:10;i:7;i:1;i:8;i:60;i:9;i:30;i:10;i:60;}"
      },
      {
        "name": "ShippingCarriers",
        "value": {
            "19": "DHL",
            "23": "GLS",
            "25": "Mail",
            "32": "DHL",
            "35": "GLS"
        }
      },
      {
        "name": "ShippingPriceSupplementVatInc",
        "value": "0"
      },
      {
        "name": "ProductVatRate",
        "value": "19"
      },
      {
        "name": "ShippingVatRate",
        "value": "19"
      },
      {
        "name": "ManufacturerWarrantyTime",
        "value": "2"
      },
      {
        "name": "WeightInGram",
        "value": "{{WeightInGram}}"
      },
      {
        "name": "LengthInMM",
        "value": "{{LengthInMM}}"
      },
      {
        "name": "FeedDirectory",
        "value": "ManomanoUK"
      },
      {
        "name": "CategoriesDependency",
        "value": "a:16:{i:314;s:12:\"Vliestapeten\";i:305;s:12:\"Vliestapeten\";i:1668;s:13:\"Papiertapeten\";i:1669;s:12:\"Vinyltapeten\";i:112;s:15:\"Tapetenkleister\";i:341;s:12:\"Stuckleisten\";i:486;s:8:\"Wanddeko\";i:819;s:7:\"Fliesen\";i:424;s:12:\"Bodenbeläge\";i:425;s:7:\"Laminat\";i:1445;s:7:\"Parkett\";i:522;s:7:\"Parkett\";i:521;s:7:\"Parkett\";i:514;s:7:\"Parkett\";i:508;s:11:\"Innenfarben\";i:509;s:13:\"Grundierungen\";}"
      }
    ]
  },
  "wpadmin_admin_global_fieldName": {
    "status": true,
    "code": 200,
    "data": [
      {
        "name": "Fields",
        "value": {
          "Name1": {
            "type": "product",
            "field": {
              "plenty": "Name1"
            }
          },
          "Name2": {
            "type": "product",
            "field": {
              "plenty": "Name2"
            }
          },
          "Name3": {
            "type": "product",
            "field": {
              "plenty": "Name3"
            }
          },
          "ShortDescription": {
            "type": "product",
            "field": {
              "plenty": "ShortDescription"
            }
          },
          "Description": {
            "type": "product",
            "field": {
              "plenty": "Description"
            }
          },
          "Keywords": {
            "type": "product",
            "field": {
              "plenty": "Keywords"
            }
          },
          "TechnicalData": {
            "type": "product",
            "field": {
              "plenty": "TechnicalData"
            }
          },
          "MetaDescription": {
            "type": "product",
            "field": {
              "plenty": "MetaDescription"
            }
          },
          "WeightInGram": {
            "type": "param",
            "field": {
              "plenty": "WeightInGram"
            }
          },
          "LengthInMM": {
            "type": "param",
            "field": {
              "plenty": "LengthInMM"
            }
          },
          "HeightInMM": {
            "type": "param",
            "field": {
              "plenty": "HeightInMM"
            }
          },
          "WidthInMM": {
            "type": "param",
            "field": {
              "plenty": "WidthInMM"
            }
          },
          "Free1": {
            "type": "param",
            "field": {
              "plenty": "Free1"
            }
          },
          "Free2": {
            "type": "param",
            "field": {
              "plenty": "Free2"
            }
          },
          "Free3": {
            "type": "param",
            "field": {
              "plenty": "Free3"
            }
          },
          "Free4": {
            "type": "param",
            "field": {
              "plenty": "Free4"
            }
          },
          "Free5": {
            "type": "param",
            "field": {
              "plenty": "Free5"
            }
          },
          "Free6": {
            "type": "param",
            "field": {
              "plenty": "Free6"
            }
          },
          "Free7": {
            "type": "param",
            "field": {
              "plenty": "Free7"
            }
          },
          "Free8": {
            "type": "param",
            "field": {
              "plenty": "Free8"
            }
          },
          "Free9": {
            "type": "param",
            "field": {
              "plenty": "Free9"
            }
          },
          "Free10": {
            "type": "param",
            "field": {
              "plenty": "Free10"
            }
          },
          "Free11": {
            "type": "param",
            "field": {
              "plenty": "Free11"
            }
          },
          "Free12": {
            "type": "param",
            "field": {
              "plenty": "Free12"
            }
          },
          "Free13": {
            "type": "param",
            "field": {
              "plenty": "Free13"
            }
          },
          "Free14": {
            "type": "param",
            "field": {
              "plenty": "Free14"
            }
          },
          "Free15": {
            "type": "param",
            "field": {
              "plenty": "Free15"
            }
          },
          "Free16": {
            "type": "param",
            "field": {
              "plenty": "Free16"
            }
          },
          "Free17": {
            "type": "param",
            "field": {
              "plenty": "Free17"
            }
          },
          "Free18": {
            "type": "param",
            "field": {
              "plenty": "Free18"
            }
          },
          "Free19": {
            "type": "param",
            "field": {
              "plenty": "Free19"
            }
          },
          "Free20": {
            "type": "param",
            "field": {
              "plenty": "Free20"
            }
          }
        }
      }
    ]
  },
  "wpadmin_admin_hub_edelux_categoriesDependency": {
    "status": true,
    "code": 200,
    "data": {
      "name": "CategoriesDependency",
      "value": [
        {
          "16": "Tapetenkleister"
        },
        {
          "20": "Bodenbeläge"
        },
        {
          "18": "Parkett"
        }
      ]
    }
  },
  "wpadmin_admin_hub_edelux_category_external": {
    "status": true,
    "code": 200,
    "data": [
        {
            "id": "Tapetenkleister",
            "name": "Tapetenkleister description",
            "parent": "Tapetenkleister"
        },
        {
            "id": "Vliestapeten",
            "name": "Vliestapeten description",
            "parent": "Vliestapeten"
        },
        {
            "id": "Stuckleisten",
            "name": "Stuckleisten description",
            "parent": "Stuckleisten"
        },
        {
            "id": "Bodenbeläge",
            "name": "Bodenbeläge description",
            "parent": "Bodenbeläge"
        },
        {
            "id": "Laminat",
            "name": "Laminat description",
            "parent": "Laminat"
        },
        {
            "id": "Wanddeko",
            "name": "Wanddeko description",
            "parent": "Wanddeko"
        },
        {
            "id": "Innenfarben",
            "name": "Innenfarben description",
            "parent": "Innenfarben"
        },
        {
            "id": "Grundierungen",
            "name": "Grundierungen description",
            "parent": "Grundierungen"
        },
        {
            "id": "Parkett",
            "name": "Parkett description",
            "parent": "Parkett"
        },
        {
            "id": "Fliesen",
            "name": "Fliesen description",
            "parent": "Fliesen"
        },
        {
            "id": "Papiertapeten",
            "name": "Papiertapeten description",
            "parent": "Papiertapeten"
        },
        {
            "id": "Vinyltapeten",
            "name": "Vinyltapeten description",
            "parent": "Vinyltapeten"
        },
        {
            "id": "111",
            "name": "description 111",
            "parent": "111"
        },
        {
            "id": "112",
            "name": "description 112",
            "parent": "112"
        },
        {
            "id": "113",
            "name": "description 113",
            "parent": "113"
        }
    ]
},
  "wpadmin_admin_hub_edelux_category": {
    "status": true,
    "code": 200,
    "data": [
      {
        "id": 16,
        "name": "Wohnzimmer",
        "parent": 16
      },
      {
        "id": 17,
        "name": "Sessel & Hocker",
        "parent": 16
      },
      {
        "id": 18,
        "name": "Sofas",
        "parent": 16
      },
      {
        "id": 19,
        "name": "Arbeitszimmer & Büro",
        "parent": 19
      },
      {
        "id": 20,
        "name": "Bürostühle",
        "parent": 19
      }
  ]
},
  "wpadmin_admin_hub_edelux_vendors": {
    "status": true,
    "code": 200,
    "data": [
      {
        "id": 415,
        "name": "testVendor415"
      },
      {
        "id": 416,
        "name": "testVendor416"
      },
      {
        "id": 417,
        "name": "testVendor417"
      },
      {
        "id": 418,
        "name": "testVendor418"
      },
      {
        "id": 419,
        "name": "testVendor419"
      },
      {
        "id": 420,
        "name": "testVendor420"
      },
      {
        "id": 421,
        "name": "testVendor421"
      },
      {
        "id": 422,
        "name": "testVendor422"
      },
      {
        "id": 423,
        "name": "testVendor423"
      },
      {
        "id": 999,
        "name": "testVendor999"
      }
    ]
  },
  "wpadmin_admin_hub_edelux_availability": {
    "status": true,
    "code": 200,
    "data": [
      {
        "id": 1,
        "name": "test1"
      },
      {
        "id": 2,
        "name": "test2"
      },
      {
        "id": 3,
        "name": "test3"
      },
      {
        "id": 4,
        "name": "test4"
      },
      {
        "id": 5,
        "name": "test5"
      },
      {
        "id": 6,
        "name": "test6"
      },
      {
        "id": 7,
        "name": "test7"
      },
      {
        "id": 8,
        "name": "test8"
      },
      {
        "id": 9,
        "name": "test9"
      },
      {
        "id": 10,
        "name": "test10"
      }
    ]
  },
  "hub_plenty_connector_id_6": {
    "status": true,
    "code": 200,
    "data": [
        {
            "name": "CategoriesDependency",
            "value": [
                {
                    "18": "Bodenbeläge"
                },
                {
                    "20": "Parkett"
                }
            ]
        },
        {
            "name": "Currency",
            "value": "EUR"
        },
        {
            "name": "FeedDirectory",
            "value": "Manomano"
        },
        {
            "name": "FeedFileName",
            "value": "manomano.de.csv"
        },
        {
            "name": "FeedType",
            "value": "csv"
        },
        {
            "name": "FieldDescription",
            "value": "<p><span style=\"color: rgb(240, 102, 102);\">{{Property1Value}}</span></p><p><br></p><p>Test </p><p><span style=\"color: rgb(255, 153, 0);\">Test 1 {{Property2Name}}</span></p><p><br></p><p><span style=\"color: rgb(255, 153, 0);\">{{Property1Value}}</span></p><p><span style=\"color: rgb(178, 178, 0);\">[[ {{Property3Name}}</span>  <span style=\"color: rgb(187, 187, 187);\">ABCD</span>  <span style=\"color: rgb(178, 178, 0);\">{{Property3Value}} ]]</span></p><p>text <span style=\"color: rgb(194, 133, 255);\">{{Property3Name}}</span></p><p>text 3 <span style=\"color: rgb(230, 0, 0);\">{{Property3Value}}</span></p><p>text</p><p><br></p><p>  </p><p><br></p><p><br></p><p><br></p><p><br></p><p><br></p>"
        },
        {
            "name": "FieldName",
            "value": "<p>Test <span style=\"color: rgb(0, 102, 204);\">{{Description}}</span></p><p><span style=\"color: rgb(0, 138, 0);\">New User - {{Free12}}</span></p><p><span style=\"color: rgb(0, 138, 0);\">{{Free15}}</span></p><p><span style=\"color: rgb(0, 138, 0);\">{{ShortDescription}}  </span></p>"
        },
        {
            "name": "FilterAvailability",
            "value": [
                2,
                3
            ]
        },
        {
            "name": "FilterProducts",
            "value": [
                432,
                433,
                434,
                435,
                437,
                440,
                1246,
                1247,
                415,
                416,
                418,
                425,
                426,
                427,
                4774,
                431,
                782,
                934,
                1249,
                493,
                496,
                497,
                498
            ]
        },
        {
            "name": "FilterVendors",
            "value": [
                417
            ]
        },
        {
            "name": "LangHuman",
            "value": "de"
        },
        {
            "name": "LangId",
            "value": "33"
        },
        {
            "name": "LengthInMM",
            "value": "{{LengthInMM}}"
        },
        {
            "name": "Login",
            "value": "Edelux_873241"
        },
        {
            "name": "MandantId",
            "value": "37205"
        },
        {
          "name": "TimeToLiveWaitingForShipmentOrders",
          "value": "2592000"
        },
        {
            "name": "ManufacturerWarrantyTime",
            "value": "2"
        },
        {
            "name": "Pass",
            "value": "edlx873241sk!s"
        },
        {
            "name": "PaymentIdForIncomingOrders",
            "value": "1"
        },
        {
            "name": "PlentyId",
            "value": "1.00"
        },
        {
            "name": "Price",
            "value": "1"
        },
        {
            "name": "ProductVatRate",
            "value": "19"
        },
        {
          "name": "PropertyColor",
          "value": "{{Property470Value}}"
        },
        {
            "name": "ShippingArea",
            "value": "DE"
        },
        {
            "name": "ShippingCarriers",
            "value": {
                "19": "DHL",
                "23": "GLS",
                "25": "Mail",
                "32": "DHL",
                "35": "GLS"
            }
        },
        {
          "name": "ShippingCosts",
          "value": {
              "EU": {
                  "19": 12.95,
                  "22": 0,
                  "23": 14.95,
                  "25": 2.5,
                  "35": 32.95
              },
              "DE": {
                  "19": 5.95,
                  "22": 0,
                  "23": 7.95,
                  "25": 1,
                  "32": 9.95,
                  "35": 19.95
              },
              "NEU": {
                  "19": 39.95,
                  "22": 0,
                  "23": 49.95,
                  "25": 3.5,
                  "35": 79.95
              },
              "ANY": {
                  "19": 59.95,
                  "22": 0,
                  "23": 99.95,
                  "25": 3.5,
                  "35": 199.95
              }
          }
        },
        {
            "name": "ShippingPriceSupplementVatInc",
            "value": "0"
        },
        {
            "name": "ShippingTime",
            "value": {
                "1": 1,
                "2": 1,
                "3": 3,
                "4": 5,
                "5": 7,
                "6": 10,
                "7": 1,
                "8": 60,
                "9": 30,
                "10": 60
            }
        },
        {
            "name": "ShippingVatRate",
            "value": "19"
        },
        {
            "name": "StatusForIncomingOrders",
            "value": "5"
        },
        {
            "name": "StatusForShippedOrders",
            "value": "7"
        },
        {
            "name": "ValidFeedTime",
            "value": "86400"
        },
        {
            "name": "WaitingForShipmentOrders",
            "value": []
        },
        {
            "name": "WeightInGram",
            "value": "{{WeightInGram}}"
        }
    ]
  },
  "plenty_language": {
    "status": true,
    "code": 200,
    "data": [
      {
        "id": 33,
        "plentyId": 0,
        "mandantId": 37185,
        "lang": "de"
      },
      {
        "id": 34,
        "plentyId": 1,
        "mandantId": 37185,
        "lang": "en"
      },
      {
        "id": null,
        "plentyId": 2,
        "mandantId": 37205,
        "lang": "de"
      }
    ]
  },
  "hub_plenty_parcel": {
    "status": true,
    "code": 200,
    "data": [
      {
          "id": 1,
          "alias": "insured package",
          "parcelServiceId": "101"
      },
      {
          "id": 19,
          "alias": "DHL",
          "parcelServiceId": "101"
      },
      {
          "id": 23,
          "alias": "GLS",
          "parcelServiceId": "102"
      }
    ]
  },
  "hub_plenty_availability": {
    "status": true,
    "code": 200,
    "data": [
        {
            "id": 1,
            "name": "Default 1-2",
            "days": 2,
            "namesVariations": [
                {
                    "lang": "de",
                    "name": "DE 1-2"
                },
                {
                    "lang": "en",
                    "name": "EN  1-2"
                }
            ]
        },
        {
            "id": 2,
            "name": "Default 3-4",
            "days": 5,
            "namesVariations": [
                {
                    "lang": "de",
                    "name": "DE 3-4"
                },
                {
                    "lang": "en",
                    "name": "EN 3-4"
                }
            ]
        },
        {
            "id": 3,
            "name": "Default 5-7",
            "days": 14,
            "namesVariations": [
                {
                    "lang": "de",
                    "name": "DE 5-7"
                },
                {
                    "lang": "en",
                    "name": "EN 5-7"
                }
            ]
        },
        {
            "id": 4,
            "name": "Default 8-9",
            "days": 30,
            "namesVariations": [
                {
                    "lang": "de",
                    "name": "DE 8-9"
                },
                {
                    "lang": "en",
                    "name": "EN 8-9"
                }
            ]
        },
        {
            "id": 5,
            "name": "Default 10-11",
            "days": 60,
            "namesVariations": [
                {
                    "lang": "de",
                    "name": "DE 10-11"
                },
                {
                    "lang": "en",
                    "name": "EN 10-11"
                }
            ]
        },
        {
            "id": 6,
            "name": "",
            "days": null,
            "namesVariations": [
                {
                    "lang": "de",
                    "name": ""
                },
                {
                    "lang": "en",
                    "name": ""
                }
            ]
        },
        {
            "id": 7,
            "name": "",
            "days": null,
            "namesVariations": [
                {
                    "lang": "de",
                    "name": ""
                },
                {
                    "lang": "en",
                    "name": ""
                }
            ]
        },
        {
            "id": 8,
            "name": "",
            "days": null,
            "namesVariations": [
                {
                    "lang": "de",
                    "name": ""
                },
                {
                    "lang": "en",
                    "name": ""
                }
            ]
        },
        {
            "id": 9,
            "name": "",
            "days": null,
            "namesVariations": [
                {
                    "lang": "de",
                    "name": ""
                },
                {
                    "lang": "en",
                    "name": ""
                }
            ]
        },
        {
            "id": 10,
            "name": "",
            "days": null,
            "namesVariations": [
                {
                    "lang": "de",
                    "name": ""
                },
                {
                    "lang": "en",
                    "name": ""
                }
            ]
        }
    ]
  },
  "hub_plenty_parcelCost": {
    "status": true,
    "code": 200,
    "data": {
        "DE": {
            "6": "5.99",
            "7": "4.95",
            "9": "7.95"
        },
        "FR": {
            "6": "11.99",
            "9": "12.95"
        },
        "GB": {
            "6": "11.99",
            "9": "12.95"
        },
        "IT": {
            "6": "11.99",
            "9": "12.95"
        }
    }
  },
  "hub-plenty_flag": {
    "status": true,
    "code": 200,
    "data": {
      "flagOne": {
        "1": {
          "icon": "icon-flag_alarm",
          "color": null
        },
        "2": {
          "icon": "icon-flag_star",
          "color": null
        },
        "3": {
          "icon": "icon-visibility_private",
          "color": null
        },
        "4": {
          "icon": "icon-help",
          "color": null
        },
        "5": {
          "icon": "icon-warning",
          "color": null
        },
        "6": {
          "icon": "icon-flag_bomb_red",
          "color": "red"
        },
        "7": {
          "icon": "icon-flag_bomb_red",
          "color": "green"
        },
        "8": {
          "icon": "icon-flag_bomb_red",
          "color": null
        },
        "9": {
          "icon": "icon-flag_ledyellow_16",
          "color": "yellow"
        },
        "10": {
          "icon": "icon-flag_ledyellow_16",
          "color": "orange"
       },
        "11": {
          "icon": "icon-flag_ledyellow_16",
          "color": "pink"
        },
        "12": {
          "icon": "icon-flag_ledyellow_16",
          "color": "red"
        },
        "13": {
          "icon": "icon-flag_ledyellow_16",
          "color": "purple"
        },
        "14": {
          "icon": "icon-flag_ledyellow_16",
          "color": "blue"
        },
        "15": {
          "icon": "icon-flag_ledyellow_16",
          "color": "darkblue"
        },
        "16": {
          "icon": "icon-flag_ledyellow_16",
          "color": "green"
        },
        "17": {
          "icon": "icon-flag_ledyellow_16",
          "color": "darkgreen"
        },
        "18": {
          "icon": "icon-flag_ledyellow_16",
          "color": "grey"
        },
        "19": {
          "icon": "icon-flag_ledyellow_16",
          "color": "darkred"
        },
        "20": {
          "icon": "icon-flag_ledyellow_16",
          "color": null
        },
        "21": {
          "icon": "icon-flag_weather_clouds",
          "color": null
        },
        "22": {
          "icon": "icon-flag_weather_cloudy",
          "color": null
        },
        "23": {
          "icon": "icon-flag_weather_lightning",
          "color": null
        },
        "24": {
          "icon": "icon-flag_weather_rain",
          "color": null
        },
        "25": {
          "icon": "icon-flag_weather_snow",
          "color": null
        },
        "26": {
          "icon": "icon-flag_weather_sun",
          "color": null
        },
        "27": {
          "icon": "icon-flag_black",
          "color": null
        },
        "28": {
          "icon": "icon-flag_black",
          "color": "blue"
        },
        "29": {
          "icon": "icon-flag_black",
          "color": "green"
        },
        "30": {
          "icon": "icon-flag_black",
          "color": "red"
        },
        "31": {
          "icon": "icon-flag_black",
          "color": "yellow"
        }
    },
    "flagTwo": {
        "1": {
          "icon": "icon-flag_user_blue",
          "color": "darkblue"
        },
        "2": {
          "icon": "icon-flag_user_blue",
          "color": "blue"
        },
        "3": {
          "icon": "icon-flag_user_blue",
          "color": "pink"
        },
        "4": {
          "icon": "icon-flag_user_blue",
          "color": "grey"
        },
        "5": {
          "icon": "icon-flag_user_blue",
          "color": "green"
        },
        "6": {
          "icon": "icon-flag_user_blue",
          "color": "lightgrey"
        },
        "7": {
          "icon": "icon-flag_user_blue",
          "color": "orange"
        },
        "8": {
          "icon": "icon-flag_user_blue",
          "color": "purple"
        },
        "9": {
          "icon": "icon-flag_user_blue",
          "color": "red"
        },
        "10": {
          "icon": "icon-flag_user_blue",
          "color": "turquoise"
        },
        "11": {
          "icon": "icon-flag_user_blue",
          "color": "yellow"
        }
      }
    }
  },
  "hub-plenty_partner": {
    "status": true,
    "code": 200,
    "data": [
      {
        "id": 6,
        "alias": "ManomanoDE",
        "Partner": {
          "id": 4,
          "lastupdate": -1,
          "frq_upd": -1,
          "lastupdate_cb": -1,
          "frq_upd_cb": -1,
          "stopTime": ""
        }
      },
      {
        "id": 5,
        "alias": "ManomanoES",
        "Partner": []
      },
      {
        "id": 7,
        "alias": "ManomanoFR",
        "Partner": []
      },
      {
        "id": 4,
        "alias": "ManomanoIT",
        "Partner": []
      },
      {
        "id": 3,
        "alias": "ManomanoUK",
        "Partner": []
      }
    ]
  },
  "hub-plenty-connector-core-id-1": {
    "status": true,
    "code": 200,
    "data": [
        {
            "name": "SelectedDriver",
            "value": "plenty"
        },
        {
            "name": "PlentySoapWsdl",
            "value": ""
        },
        {
            "name": "PlentySoapUser",
            "value": ""
        },
        {
            "name": "PlentySoapPassword",
            "value": ""
        },
        {
            "name": "PlentyRestRoute",
            "value": "https://e-delux.plentymarkets-cloud01.com/rest/"
        },
        {
            "name": "PlentyRestUser",
            "value": "apiplenty"
        },
        {
            "name": "PlentyRestPassword",
            "value": "4K7GzwqCPRtZVXDz"
        },
        {
            "name": "PlentySoapToken",
            "value": ""
        },
        {
            "name": "PlentySoapUserId",
            "value": ""
        },
        {
            "name": "PlentyRestAccessToken",
            "value": "eyJ0eXAiOiJKV1QiLCJhbGciOiJSUzI1NiIsImp0aSI6ImE3OTJkYjhjNDE2OWU5OGJjMzNiNTZjOGExNTg1YjlhOGJmNGM4NTMyNGUwODQ2OTNjZGE3OWM2MDYyYjFkN2U1OGRmNjcwZWYwM2M2MmE1In0.eyJhdWQiOiIxIiwianRpIjoiYTc5MmRiOGM0MTY5ZTk4YmMzM2I1NmM4YTE1ODViOWE4YmY0Yzg1MzI0ZTA4NDY5M2NkYTc5YzYwNjJiMWQ3ZTU4ZGY2NzBlZjAzYzYyYTUiLCJpYXQiOjE1NDgzOTg1OTgsIm5iZiI6MTU0ODM5ODU5OCwiZXhwIjoxNTQ4NDg0OTk4LCJzdWIiOiI3Iiwic2NvcGVzIjpbIioiXX0.raYYLfxmrLqibbnKXufIzmrWc74wqyO9Un3eM1DxGS-dtlHpoRuzXsX68Bp0H1SmhkqmS2QmSIPRfAlx5iRAV7wJrheXntkhFCAEqre-swJkGvTw8NLiXh5zX0ugmzU1B4v5AY3em6vNEiD-1dn5BtSiIe4KDCg1PAFFReXrn5AOXmKulFIi2F4nUfs5diX5RyhECoQqhNqGBjtnnoZKWdULCwZWgMeTihHVG31Bo9x5flBO9OFoFaEeBO5NwK8xK_XWPUbt7UEwCmQ5JyCw40bkDUchv3vdAXnHKhT_5NhIn2szZCLWkif2h63XGCjOI_P4lbFbX4cp2h4WSFAYMLxbUtk6pzhDcFOAGe2nLph-nEtUTK3Bywzs6EMNq76TZCu2yk8aY1ihaSXZRyaEvSYpiDBnjvmtMT6XVJdORejdgisLzvJzcQKNryujoh2qXCmr40bj9JPzOaW3MOfWaCdcDc1wPcMMLDxK2eUxda9sv_E0lp4-BjyLJHrI5aXPSj_ehSfwYYIhgdIFxoxDjupqYqm2qy86qf25_b-ixG0kKPSCTY3zUefDK9W73l2e_U5oS5X2hlIYbD0ebOixDb_mjAk60BvJQnhKMm3io2W0AUB6gszVPhlIXRb2Soth3sPRSEap2ptQwLWYQf9mTtyNwcOsaSlzRBMykKKuKe4"
        },
        {
            "name": "PlentyRestRefreshToken",
            "value": "def50200719019ec4e32c3febfe86d687d123d46247247f83ad1b0cb2a462737ba096f04b6a4850e5350b3cbaa8bd34bf7fe80cb51a8ff7f9008a24aa719ad4c6151b439a8c2c4df352df129edbac0de3815f29c2cb7187d458d56ed734a806a7bd5088fb55fecd40ec1483bb1feead9207b5feb769ce6b788fd8c79af80db185a0bd96e0a62b4db0bdd45a5a9ff311068a57405838d950b0e807d2a350db93879c5b6f4a0176ac919faf4dca964aaed79be163225f9abf4e5a748ec964c7b80245d5c28e489b95e9f05a6437e0445105be5c18a86e32a89991beac1f44b457fbe6a6b9d536d5ba9a0846c95d78d483aed8ca86a1235df217c24f7049096c2a848f93cc6d702a84c822cc789b84672c39478698ce65cb24469d4246e5e84d5ec76119b2c53228e92075d1a57cf08d608b4538e5489c72cd85e646fd508f48390ebf434dc9a7872f48d02a5cca6f25e853659bcc7afd8886e966288a517bc134601d0"
        },
        {
            "name": "PlentyRestLastRefresh",
            "value": "1548398598"
        },
        {
            "name": "ConductorName",
            "value": ""
        },
        {
            "name": "ConductorTimestamp",
            "value": ""
        },
        {
            "name": "TimeForDebugRotation",
            "value": "432000"
        },
        {
            "name": "FeedStorageHomeDirectory",
            "value": "www/3"
        },
        {
            "name": "FeedStorageHost",
            "value": "feeds.eurosektor.de"
        },
        {
            "name": "FeedStoragePort",
            "value": "55555"
        },
        {
            "name": "FeedStorageUser",
            "value": "feed"
        },
        {
            "name": "FeedStoragePassword",
            "value": "xM*rKQTNw7CIqU2BPIh8"
        },
        {
            "name": "FeedStorageRSA",
            "value": "-----BEGIN RSA PRIVATE KEY----- MIIJKgIBAAKCAgEAvR4WToN5oBz32YSMp5EvZEQmeY1CAH/3rNOlXY+yKpK30e6T Ss9aer2rKz7aMJ9a2LqXi0HM3/8dhtUMEplFB6GBWTItBX2PJdlk0Gyx4AX4/pbL 5BMMcrenrsFSqcDjjzsg0svhbnJYVXzs+wmnvGfv2PX6vePFUN12LOrpXEbLU/jV gT6wkVONEMp/U1fxor4yG9wlkKNu305PD3fWjfnoHkUXg6TQ0jmt/g9tj7SPOiDr wAGZuxfvUMXeKm2gL7x/G3FYS7gvQFgM2hZGCeA327afgrdF1JYkD02Ij5IrFSz3 xFYo8wV5YOWqT1Nr82BB/kjhyC8t82hjrOX5FPr63br0n454qlqarSECOY1MJaBG a4mIbRl5gK3iWkEg4qBhdn4XVsz3qwxi3mQmXEndH/APoLPjMjWp7rdOV+3yt8PX nqUkMc6GEavnSCxBPfjvU8A+tK9hBCqjBA/C7zy77s2yC02HheLdnkW0qOuYtPnu +yYdPqR3TV3tUGZCvG2DtEwu1qcTvCHFKi2zJPppxTUWc9V9panE2lj7rR1FrHp6 agbFtvoj7WHxhF8vi8oCnGcJHTIY8HMh1popNtCdzxRHt/nZqImhiJe58cCC/TZc CCd9RKQIPsEKKozMB5Fs8Ek+tcatuCebDFOIt229FlPand+ZGwK0JO/KHfECAwEA AQKCAgEAo/jNUH/wWaIkR8YEill4pM/uKCARJQvPPFs5mxi3WvBhTzUzIn8MrTV8 jv9tARF6HEYUlVqU/3ZcLIbWc93Om2IuG59Ep+kIz8FhBtHnnByxmlQ3LmZRubmB OyVFvgePhqW2vO6nZDLiYiTx+GuTsujPbedA45n0gDu0dhesBCUhsIok3G31e9vc iL16jlHHIdsU6VEEhRcfT6C/LeMy9WDEIFK5o5uor03xjUHlNd9Q/A6FObJpj22e QwN8sH7ij+E4uBubefOVjI2LfyAm0/NDm04JmbW8ZylS1K3eBNWwYyjdHq+xy5xo dFpNQ4BKLfe84HRix0YY6l4NZmDzh/0PrQ3TVfnPe9gYoevZXJ5BhYglyvd31Ovm dydeCy2I1e7/rcDoHWJl1eGPcuGgAmBab3oEIWhc0frV1fZOefxScgIpR/OH48IM BQ7E4U5sb0nFeYXaci06r52YLTulHWKQUJ2go6hyqrfwsnOH8F9e2S4wI8ohjFWF qpJZG9K2RLW/0noizdpsKCp1DBtWGBpK4PdJVNimB/IIcMSM3rd+Mb5SpD+0W5Nk A5A1g+HutyTII7bNyC7M/pghEy393VHy+M7f2Y/0tzsD57qt+Cvu5N+xDX+jv12/ RDc64dMjzGS50XCoyE9wa9HtG3rVldKBeuJO9bEB+X2pl/YZjD0CggEBAPIy5V+o oV3WVpKnEI2/8x6qvJDYTg2EVWmiPeaxyWzYj+eiFS/DHoftr+HZ5ErDfxY6U6RH D3LVV9QBicFL6RSjKG/Yf8/TC2LM0R2uT/xS1m0P22bOzznII9kV/V8V2LxH746V sG5jT9ZBaRHIusZv1zNoG7F7zXb6T0HfjpxZepJMCJmNCFnqxNE0yoiWoDtpJhlh jYRugzKVU1QpCzvNS/tb1xVdtKpzxOJAwDBjAnuCAf8L4zjHaISk1hitK+wsFU0G R032q81q9QXA37mLdGSyekkVUMonUidMAty2BowpGe3kZ4bMHV9RLvK63PCAWRk9 NJnkg44IZPSNI/cCggEBAMfk3JDxd0ohrYW7VRWSL8N8VDK2qqwbCAYAXJkmZkZb 7FiJMB2Il3Zu5rg9nuUr1AzK9CyXUs4ZEvIvnpGM2HKUszEA09FW8B/LL91bYm6y +jnxLcXkL1QQwZwXNNn12yWf8K1KCoVMA5Q+Dlb75IZuSOQyX4PjZqFys8hNnPkO z5OuZCQ/dP5SuzZbLGfH7TT0IJwnUEeKRw+olDpp+rxLJwoIFfwV3l6qUdQizVAY Js6MYvXzay1hRmJ2jbnfJHXW/r2LPh1gWT33pOrLbuhAA+htcdfb3yymbuJ89IyL xcGuZyugw02YqyFX7+5O5wksJ1mu/r32+CFeeT8RA1cCggEBAKqpun8hcDOTKQXF uyBnNYVSgfT+tmFH8new3zWD6Y9NOnnZ+FvjfcwCbIEU7IzSHOcoym9jszsTogO9 4bfXKbJlFcVaJRXofIluEZx8i9gc9wN6vPtAlzz8DmaV3Cf4WPSzK9apG91tFYDA Lq1daF8Tx+xtW7ZAqpM/5kFgqjj5xCj6csTgYBYcG/ve2yhMGzRB75rK5tF+newy 1LjlAwlsrDG+kVx43ymM0hsrzUFLQyCMh6OUWNRVjwyIqmRRAjY1Cf1wgyYovv7M c0NOmVdBMQ8TxJ9i6b7I3lbadNnZWdvByoea/mg5xCi6J/7aNX0ys5XZTwtxvlGD EMBSBBkCggEAObw3nMGxk77QcKzf8WAM3aieZRtvhlA0bA9Ur4NwzOemBxhwxkb6 gGGd0B80MrsK/zrrdamraA3D9CGe6ilFJysd6oxzoaY7quM0CvpnHtQhA/VOJDc5 GE3SrfPh9wZU6rQcfuDA0ylWa03VNHiC0/UspoSKI/zdWspXdQY9zY3ilKQtFm8h qodYvWVuGPec4suUU6XjQRaGWdZ2Ib0Uh6gpOXOGbg4e8Ta+dcgrhvPC2augtas+ DJhpDO1zF/mEfWjAoRyDr1Zx0D0j7BEgEoLS3iImXJOMDUhxBIfU1ndUghGOiQJh BpuO6g2NJkax4mtXXkb2GwYnOvQfjwCp9wKCAQEAjE9Ap8zdgblmvAu54PLNkhue SuSVeL/Sb8yJhzwwFkL4D7c0tO9W5pMFkUBKjrYfc5sJlvi1YVsixjdAn2q+Ej+U e8keZLvniD6wTaihXqQk7XYW2aGlbmlCXc4MG41vdULP8yJ1Ez3OEBHMubclOONW QztVuG91HnsvFsRcIXjSQHs6ff9pC62A3BZBHHYXCAAOGyYAKrFD2JpcJ2t29GcW 6jeCiw2gJA50V7V1LWoXDhlTKHO3Qg5DcFaNpcW1n/7DmAB0Fppc2KyhIvO+sqGL JMCmJENEZVhLBVonojIj+OqmdsKmPPB1ftxkjwz+YkH6BHwCAqy6lf142bENjg== -----END RSA PRIVATE KEY----- "
        },
        {
            "name": "FeedStorageType",
            "value": "SFTP"
        },
        {
            "name": "UserSelfId",
            "value": "3"
        },
        {
            "name": "MemcachedAddress",
            "value": "mc6.c1.fra1.do.memcachier.com"
        },
        {
            "name": "MemcachedPassword",
            "value": "075E87E6C45C260F93FB6B7EC462A5C2"
        },
        {
            "name": "MemcachedPort",
            "value": "11212"
        },
        {
            "name": "MemcachedUser",
            "value": "F1261A"
        },
        {
            "name": "FeedHttpAddress",
            "value": "https://feeds.eurosektor.de/3"
        }
    ]
  },
  "hub-plentyOrdersStatus":{
    "status": true,
    "code": 200,
    "data": [
      {
        "en": "[1] Data missing",
        "de": "[1] Unvollständige Daten",
        "id": "1"
      },
      {
        "en": "[1.1] Waiting for payment & activation",
        "de": "[1.1] Warten auf Zahlung & Freischaltung",
        "id": "1.1"
      },
      {
        "en": "[1.2] Activated, waiting for payment",
        "de": "[1.2] Freigeschaltet, warten auf Zahlung",
        "id": "1.2"
      },
      {
        "en": "[2] Waiting for activation",
        "de": "[2] Warten auf Freischaltung",
        "id": "2"
      },
      {
        "en": "[3] Waiting for payment",
        "de": "[3] Warten auf Zahlung",
        "id": "3"
      },
      {
        "en": "[3.1] Start PayPal-paymentprocess",
        "de": "[3.1] Start PayPal-Zahlungsprozess",
        "id": "3.1"
      },
      {
        "en": "[3.2] In waiting position",
        "de": "[3.2] In Warteposition",
        "id": "3.2"
      },
      {
        "en": "[3.3] Ready for shipment; waiting for payment",
        "de": "[3.3] Versandfertig; warten auf Zahlung",
        "id": "3.3"
      },
      {
        "en": "[3.4] Dunning letter sent",
        "de": "[3.4] Mahnung versendet",
        "id": "3.4"
      },
      {
        "en": "[4] Preparing for Shipment",
        "de": "[4] In Versandvorbereitung",
        "id": "4"
      },
      {
        "en": "[5] Shipment process started",
        "de": "[5] Freigabe Versand",
        "id": "5"
      },
      {
        "en": "[5.1] External fulifillment",
        "de": "[5.1] Abwicklung extern",
        "id": "5.1"
      },
      {
        "en": "[6] Shipping in process",
        "de": "[6] Gerade im Versand",
        "id": "6"
      },
      {
        "en": "[7] Shipped",
        "de": "[7] Warenausgang gebucht",
        "id": "7"
      },
      {
        "en": "[7.1] Order exported",
        "de": "[7.1] Auftrag exportiert",
        "id": "7.1"
      },
      {
        "en": "[8] Cancelled",
        "de": "[8] Storniert",
        "id": "8"
      },
      {
        "en": "[8.1] Cancelled by customer",
        "de": "[8.1] Storniert durch Kunden",
        "id": "8.1"
      },
      {
        "en": "[9] Return",
        "de": "[9] Retoure",
        "id": "9"
      },
      {
        "en": "[9.1] Items are undergoing checks",
        "de": "[9.1] Ware wird geprüft",
        "id": "9.1"
      },
      {
        "en": "[9.2] Waiting for return from wholeseller",
        "de": "[9.2] Warten auf Retoure von Großhändler",
        "id": "9.2"
      },
      {
        "en": "[9.3] Warranty process started",
        "de": "[9.3] Gewährleistung eingeleitet",
        "id": "9.3"
      },
      {
        "en": "[9.4] exchange process started",
        "de": "[9.4] Umtausch eingeleitet",
        "id": "9.4"
      },
      {
        "en": "[9.5] Credit note created",
        "de": "[9.5] Gutschrift angelegt",
        "id": "9.5"
      },
      {
        "en": "[10] Warranty",
        "de": "[10] Gewährleistung",
        "id": "10"
      },
      {
        "en": "[11] Credit note",
        "de": "[11] Gutschrift",
        "id": "11"
      },
      {
        "en": "[11.1] Refund done",
        "de": "[11.1] Gutschrift ausgezahlt",
        "id": "11.1"
      },
      {
        "en": "[12] Repair",
        "de": "[12] Reparatur",
        "id": "12"
      },
      {
        "en": "[13] Collection Order",
        "de": "[13] Sammelauftrag",
        "id": "13"
      },
      {
        "en": "[14] Collection Order credit note",
        "de": "[14] Sammelgutschrift",
        "id": "14"
      }
    ]
  },
  "hub-plenty-logs" : {
    "status": true,
    "code": 200,
    "data": [
      {
          "EventTime": "2019-02-14T00:01:01Z",
          "Type": "feed",
          "Component": "worker",
          "SessionId": "7777777777770"
      },
      {
          "EventTime": "2019-02-14T00:02:02Z",
          "Type": "feed",
          "Component": "worker",
          "SessionId": "7777777777771"
      },
      {
          "EventTime": "2019-02-14T00:03:03Z",
          "Type": "feed",
          "Component": "worker",
          "SessionId": "7777777777772"
      },
      {
          "EventTime": "2019-02-14T00:04:04Z",
          "Type": "feed",
          "Component": "worker",
          "SessionId": "7777777777773"
      },
      {
          "EventTime": "2019-02-14T00:05:05Z",
          "Type": "feed",
          "Component": "worker",
          "SessionId": "7777777777774"
      },
      {
          "EventTime": "2019-02-14T00:06:06Z",
          "Type": "feed",
          "Component": "worker",
          "SessionId": "77777777777710"
      },
      {
          "EventTime": "2019-02-14T00:07:41Z",
          "Type": "feed",
          "Component": "worker",
          "SessionId": "77777777777711"
      },
      {
          "EventTime": "2019-02-14T00:08:41Z",
          "Type": "feed",
          "Component": "worker",
          "SessionId": "77777777777712"
      },
      {
          "EventTime": "2019-02-14T00:09:41Z",
          "Type": "feed",
          "Component": "worker",
          "SessionId": "77777777777713"
      },
      {
          "EventTime": "2019-02-14T00:10:39Z",
          "Type": "feed",
          "Component": "worker",
          "SessionId": "77777777777714"
      },
      {
          "EventTime": "2019-02-14T05:42:28Z",
          "Type": "feed",
          "Component": "worker",
          "SessionId": "5c64ffc45ff51"
      },
      {
          "EventTime": "2019-02-14T05:25:03Z",
          "Type": "feed",
          "Component": "worker",
          "SessionId": "5c64fba9c51d8"
      },
      {
          "EventTime": "2019-02-14T05:25:02Z",
          "Type": "feed",
          "Component": "worker",
          "SessionId": "5c64fba9c51d8"
      },
      {
          "EventTime": "2019-02-14T05:24:57Z",
          "Type": "feed",
          "Component": "worker",
          "SessionId": "5c64fba9c51d8"
      },
      {
          "EventTime": "2019-02-14T05:24:45Z",
          "Type": "feed",
          "Component": "worker",
          "SessionId": "5c64fb9d91aa9"
      },
      {
          "EventTime": "2019-02-14T05:23:22Z",
          "Type": "feed",
          "Component": "worker",
          "SessionId": "5c64fb4a05b9c"
      },
      {
          "EventTime": "2019-02-14T05:15:51Z",
          "Type": "feed",
          "Component": "worker",
          "SessionId": "5c64f987ef2fe"
      },
      {
          "EventTime": "2019-02-14T05:15:40Z",
          "Type": "feed",
          "Component": "worker",
          "SessionId": "5c64f97cd7acb"
      },
      {
          "EventTime": "2019-02-14T05:01:43Z",
          "Type": "feed",
          "Component": "worker",
          "SessionId": "5c64f637a60b7"
      },
      {
          "EventTime": "2019-02-14T04:50:54Z",
          "Type": "feed",
          "Component": "worker",
          "SessionId": "5c64f3ae41ef6"
      },
      {
          "EventTime": "2019-02-14T04:46:44Z",
          "Type": "feed",
          "Component": "worker",
          "SessionId": "5c64f2b4e5155"
      },
      {
          "EventTime": "2019-02-14T04:41:58Z",
          "Type": "feed",
          "Component": "worker",
          "SessionId": "5c64f19678bc7"
      },
      {
          "EventTime": "2019-02-14T04:10:15Z",
          "Type": "feed",
          "Component": "worker",
          "SessionId": "5c64ea2546f95"
      },
      {
          "EventTime": "2019-02-14T04:10:14Z",
          "Type": "feed",
          "Component": "worker",
          "SessionId": "5c64ea2546f95"
      },
      {
          "EventTime": "2019-02-14T04:10:14Z",
          "Type": "feed",
          "Component": "worker",
          "SessionId": "5c64ea2546f95"
      },
      {
          "EventTime": "2019-02-14T04:10:13Z",
          "Type": "feed",
          "Component": "worker",
          "SessionId": "5c64ea2546f95"
      },
      {
          "EventTime": "2019-02-14T03:45:00Z",
          "Type": "feed",
          "Component": "worker",
          "SessionId": "5c64e43c37a16"
      },
      {
          "EventTime": "2019-02-14T03:44:51Z",
          "Type": "feed",
          "Component": "worker",
          "SessionId": "5c64e433114c8"
      },
      {
          "EventTime": "2019-02-14T03:05:38Z",
          "Type": "feed",
          "Component": "worker",
          "SessionId": "5c64db00e6dbe"
      },
      {
          "EventTime": "2019-02-14T03:05:38Z",
          "Type": "feed",
          "Component": "worker",
          "SessionId": "5c64db00e6dbe"
      },
      {
          "EventTime": "2019-02-14T03:05:38Z",
          "Type": "feed",
          "Component": "worker",
          "SessionId": "5c64db00e6dbe"
      },
      {
          "EventTime": "2019-02-14T03:05:36Z",
          "Type": "feed",
          "Component": "worker",
          "SessionId": "5c64db00e6dbe"
      },
      {
          "EventTime": "2019-02-14T02:50:30Z",
          "Type": "feed",
          "Component": "worker",
          "SessionId": "5c64d77675bda"
      },
      {
          "EventTime": "2019-02-14T02:45:22Z",
          "Type": "feed",
          "Component": "worker",
          "SessionId": "5c64d642acb1d"
      }
    ]
  },
  "hub-plenty_logSession0_type": {
    "status": true,
    "code": 200,
    "data": [{
      "SessionType": "party",
      "StartTime": "2019-02-13T00:00:00Z",
      "EndTime": "2019-02-13T00:01:00Z",
      "QtyEvents": 10,
      "QtyWarning": 0,
      "QtyError": 0,
      "QtyInfo": 10
    }]
  },
  "hub-plenty_logSession1_type": {
    "status": true,
    "code": 200,
    "data": [{
      "SessionType": "full",
      "StartTime": "2019-02-13T01:00:10Z",
      "EndTime": "2019-02-13T01:01:10Z",
      "QtyEvents": 10,
      "QtyWarning": 0,
      "QtyError": 0,
      "QtyInfo": 10
    }]
  },
  "hub-plenty_logSession2_type": {
    "status": true,
    "code": 200,
    "data": [{
      "SessionType": "full",
      "StartTime": "2019-02-13T02:00:20Z",
      "EndTime": "2019-02-13T02:01:20Z",
      "QtyEvents": 10,
      "QtyWarning": 0,
      "QtyError": 0,
      "QtyInfo": 10
    }]
  },
  "hub-plenty_logSession3_type": {
    "status": true,
    "code": 200,
    "data": [{
      "SessionType": "full",
      "StartTime": "2019-02-13T03:00:30Z",
      "EndTime": "2019-02-13T03:01:30Z",
      "QtyEvents": 10,
      "QtyWarning": 0,
      "QtyError": 0,
      "QtyInfo": 10
    }]
  },
  "hub-plenty_logSession4_type": {
    "status": true,
    "code": 200,
    "data": [{
      "SessionType": "full",
      "StartTime": "2019-02-13T04:00:40Z",
      "EndTime": "2019-02-13T04:01:40Z",
      "QtyEvents": 10,
      "QtyWarning": 0,
      "QtyError": 0,
      "QtyInfo": 10
    }]
  },
  "hub-plenty_logSession10_type": {
    "status": true,
    "code": 200,
    "data": [{
      "SessionType": "full",
      "StartTime": "2019-02-13T00:00:00Z",
      "EndTime": "2019-02-13T00:01:00Z",
      "QtyEvents": 10,
      "QtyWarning": 0,
      "QtyError": 0,
      "QtyInfo": 10
    }]
  },
  "hub-plenty_logSession11_type": {
    "status": true,
    "code": 200,
    "data": [{
      "SessionType": "full",
      "StartTime": "2019-02-13T01:00:10Z",
      "EndTime": "2019-02-13T01:01:10Z",
      "QtyEvents": 10,
      "QtyWarning": 0,
      "QtyError": 0,
      "QtyInfo": 10
    }]
  },
  "hub-plenty_logSession12_type": {
    "status": true,
    "code": 200,
    "data": [{
      "SessionType": "full",
      "StartTime": "2019-02-13T02:00:20Z",
      "EndTime": "2019-02-13T02:01:20Z",
      "QtyEvents": 10,
      "QtyWarning": 0,
      "QtyError": 0,
      "QtyInfo": 10
    }]
  },
  "hub-plenty_logSession13_type": {
    "status": true,
    "code": 200,
    "data": [{
      "SessionType": "full",
      "StartTime": "2019-02-13T03:00:30Z",
      "EndTime": "2019-02-13T03:01:30Z",
      "QtyEvents": 10,
      "QtyWarning": 0,
      "QtyError": 0,
      "QtyInfo": 10
    }]
  },
  "hub-plenty_logSession14_type": {
    "status": true,
    "code": 200,
    "data": [{
      "SessionType": "full",
      "StartTime": "2019-02-13T04:00:40Z",
      "EndTime": "2019-02-13T04:01:40Z",
      "QtyEvents": 10,
      "QtyWarning": 0,
      "QtyError": 0,
      "QtyInfo": 10
    }]
  },
  "hub-plenty_logSession":{
    "status": true,
    "code": 200,
    "data": [
      {
        "EventTime": "2019-02-13T00:10:23Z",
        "MessageType": "info",
        "Message": "Uploading ok"
      },
      {
        "EventTime": "2019-02-13T00:20:23Z",
        "MessageType": "warning",
        "Message": "Finish prepare feed for ManomanoDE"
      },
      {
        "EventTime": "2019-02-13T00:30:22Z",
        "MessageType": "error",
        "Message": "Start partly update feed"
      },
      {
        "EventTime": "2019-02-13T00:40:22Z",
        "MessageType": "info",
        "Message": "Fetch products from database"
      },
      {
        "EventTime": "2019-02-13T00:50:22Z",
        "MessageType": "info",
        "Message": "Finish preparing feed"
      },
      {
        "EventTime": "2019-02-13T00:59:20Z",
        "MessageType": "error",
        "Message": "Start prepare feed for ManomanoDE... "
      },
      {
        "EventTime": "2019-02-13T01:10:20Z",
        "MessageType": "info",
        "Message": "Validate configuration data"
      },
      {
        "EventTime": "2019-02-13T01:20:20Z",
        "MessageType": "warning",
        "Message": "Collect variables in string"
      },
      {
        "EventTime": "2019-02-13T01:30:20Z",
        "MessageType": "info",
        "Message": "Build categories tree"
      },
      {
        "EventTime": "2019-02-13T01:40:18Z",
        "MessageType": "info",
        "Message": "Message decoded OK. Customer: 3, func: ManomanoDE:feed, processor: connector"
      }
    ]
  },
  "hub-plenty_logSessionTimePeriod": {
    "status": true,
    "code": 200,
    "data": []
  },
  "hub-plenty_logSessionTimePeriod_from_3_May_to_5_May": {
    "status": true,
    "code": 200,
    "data": [
      {
        "EventTime": "2019-02-14T00:01:01Z",
        "Type": "feed",
        "Component": "worker",
        "SessionId": "7777777777770"
      },
      {
          "EventTime": "2019-02-14T00:02:02Z",
          "Type": "feed",
          "Component": "worker",
          "SessionId": "7777777777771"
      },
      {
          "EventTime": "2019-02-14T00:03:03Z",
          "Type": "feed",
          "Component": "worker",
          "SessionId": "7777777777772"
      }
    ]
  },
  "hub-plenty_ShippingArea": {
    "status": true,
    "code": 200,
    "data": [
      {
        "id": 0,
        "name": "vorab Überweisung/Vorkasse"
      },
      {
        "id": 1,
        "name": "Nachnahme"
      },
      {
        "id": 4,
        "name": "Bar bei Übergabe"
      },
      {
        "id": 29,
        "name": "Australia"
      },
      {
        "id": 96,
        "name": "Cameroon"
      }
    ]
  },
  "plentyId_Params": {
    "status": true,
    "code": 200,
    "data": [
      {
        "id": "0.00",
        "name": "Manuelle Eingabe"
      },
      {
        "id": "1.00",
        "name": "Mandant (Shop)"
      },        {
        "id": "160.00",
        "name": "OTTO"
      },
      {
        "id": "160.10",
        "name": "OTTO Cooperation"
      }
    ]
  },
  "plenty_Webstore": {
    "status": true,
    "code": 200,
    "data": [
      {
        "id": 0,
        "name": "Standard Shop 1",
        "mandantId": 37185
      },
      {
        "id": 1,
        "name": "Standard Shop 2",
        "mandantId": 37205
      }
    ]
  },
  "plenty_SalesPrice": {
    "status": true,
    "code": 200,
    "data": [
      {
        "de": "Preis",
        "en": "ENPrice",
        "id": "1"
      },
      {
        "de": "UVP",
        "en": "RRP",
        "id": "2"
      },
      {
        "de": "Preis GBP",
        "en": "USDPrice1",
        "id": "3"
      },
      {
        "de": "Preis USD",
        "id": "4"
      },
      {
        "de": "Preis Eur",
        "id": "5"
      }
    ]
  }
}